<svg width="55" height="55" viewBox="0 0 55 55" fill="none" xmlns="http://www.w3.org/2000/svg">
<path d="M23.4595 14.2401H9V35.6351H23.4595C24.5601 35.6351 25.58 35.9851 26.416 36.578V17.1966C26.416 15.5664 25.0897 14.2401 23.4595 14.2401ZM23.4791 20.4334C23.4791 21.5016 23.0735 22.4768 22.4082 23.2132V26.375C22.4082 29.262 20.0595 31.6107 17.1726 31.6107C14.2857 31.6107 11.9369 29.262 11.9369 26.375V22.4152C11.9369 20.1264 13.7989 18.2644 16.0877 18.2644H23.4791V20.4334H23.4791Z" fill="#27AAE1"/>
<path d="M14.1047 22.4152V22.4162H19.3282C20.4215 22.4162 21.311 21.5267 21.311 20.4334V20.4324H16.0874C14.9941 20.4324 14.1047 21.3218 14.1047 22.4152Z" fill="#27AAE1"/>
<path d="M28.584 40.7596V40.7599H46V37.803H31.5405C29.9103 37.803 28.584 39.1294 28.584 40.7596Z" fill="#27AAE1"/>
<path d="M14.1047 24.5841V26.375C14.1047 28.0665 15.4809 29.4427 17.1724 29.4427C18.8639 29.4427 20.2401 28.0665 20.2401 26.375V24.4832C19.9465 24.5492 19.6414 24.5841 19.3282 24.5841H14.1047V24.5841Z" fill="#27AAE1"/>
<path d="M23.4595 37.803H9V40.7599L26.416 40.7596C26.416 39.1294 25.0897 37.803 23.4595 37.803Z" fill="#27AAE1"/>
<path d="M31.5405 14.2401C29.9103 14.2401 28.584 15.5664 28.584 17.1966V36.5779C29.42 35.9851 30.4399 35.6351 31.5405 35.6351H46V14.2401H31.5405ZM42.5276 26.375C42.5276 29.262 40.1789 31.6107 37.292 31.6107C34.4051 31.6107 32.0563 29.262 32.0563 26.375V23.5001C32.0563 20.6131 34.4051 18.2644 37.292 18.2644C40.1789 18.2644 42.5276 20.6131 42.5276 23.5001V26.375Z" fill="#27AAE1"/>
<path d="M37.292 20.4324C35.6005 20.4324 34.2244 21.8086 34.2244 23.5001V23.502H36.0133L37.292 22.5241L38.5708 23.502H40.3597V23.5001C40.3597 21.8086 38.9836 20.4324 37.292 20.4324Z" fill="#27AAE1"/>
<path d="M37.292 25.2534L36.7472 25.6701H34.2244V26.3751C34.2244 28.0666 35.6005 29.4428 37.292 29.4428C38.9836 29.4428 40.3597 28.0666 40.3597 26.3751V25.6701H37.8369L37.292 25.2534Z" fill="#27AAE1"/>
</svg>
